^C:\$ECLIPSE32BIT\ECLIPSEWORKSPACE32BIT\DOME\DOMENATIVEPLUGINCODE\EXCELPLUGINNEW\STDAFX.CPP
/c /I"C:\aDigitalMfg\DigitalMfgCommons-dome\DomeNativePluginCode\DomePluginNew" /Zi /nologo /W3 /WX- /O2 /Ob1 /Oy- /D WIN32 /D NDEBUG /D _LIB /D _VC80_UPGRADE=0x0600 /D _MBCS /D _AFXDLL /GF /Gm- /EHsc /MD /GS /Gy /fp:precise /Zc:wchar_t /Zc:forScope /Fo".\Release\\" /Fd".\Release\vc100.pdb" /Gd /TP /analyze- /errorReport:prompt C:\$ECLIPSE32BIT\ECLIPSEWORKSPACE32BIT\DOME\DOMENATIVEPLUGINCODE\EXCELPLUGINNEW\STDAFX.CPP
^C:\$ECLIPSE32BIT\ECLIPSEWORKSPACE32BIT\DOME\DOMENATIVEPLUGINCODE\DOMEPLUGINNEW\DOMEEXCEPTION.CPP
/c /I"C:\aDigitalMfg\DigitalMfgCommons-dome\DomeNativePluginCode\DomePluginNew" /Zi /nologo /W3 /WX- /O2 /Ob1 /Oy- /D WIN32 /D NDEBUG /D _LIB /D _VC80_UPGRADE=0x0600 /D _MBCS /D _AFXDLL /GF /Gm- /EHsc /MD /GS /Gy /fp:precise /Zc:wchar_t /Zc:forScope /Fo".\Release\\" /Fd".\Release\vc100.pdb" /Gd /TP /analyze- /errorReport:prompt C:\$ECLIPSE32BIT\ECLIPSEWORKSPACE32BIT\DOME\DOMENATIVEPLUGINCODE\DOMEPLUGINNEW\DOMEEXCEPTION.CPP
^C:\$ECLIPSE32BIT\ECLIPSEWORKSPACE32BIT\DOME\DOMENATIVEPLUGINCODE\DOMEPLUGINNEW\TYPECONVERSIONS.CPP
/c /I"C:\aDigitalMfg\DigitalMfgCommons-dome\DomeNativePluginCode\DomePluginNew" /Zi /nologo /W3 /WX- /O2 /Ob1 /Oy- /D WIN32 /D NDEBUG /D _LIB /D _VC80_UPGRADE=0x0600 /D _MBCS /D _AFXDLL /GF /Gm- /EHsc /MD /GS /Gy /fp:precise /Zc:wchar_t /Zc:forScope /Fo".\Release\\" /Fd".\Release\vc100.pdb" /Gd /TP /analyze- /errorReport:prompt C:\$ECLIPSE32BIT\ECLIPSEWORKSPACE32BIT\DOME\DOMENATIVEPLUGINCODE\DOMEPLUGINNEW\TYPECONVERSIONS.CPP
