^D:\WORK\DOME\NATIVEPLUGINCODE\DOMEPLUGIN\DEBUG\DLLMAIN.OBJ|D:\WORK\DOME\NATIVEPLUGINCODE\DOMEPLUGIN\DEBUG\DOMEEXCEPTION.OBJ|D:\WORK\DOME\NATIVEPLUGINCODE\DOMEPLUGIN\DEBUG\DOMEPLUGIN.DLL.EMBED.MANIFEST.RES|D:\WORK\DOME\NATIVEPLUGINCODE\DOMEPLUGIN\DEBUG\STDAFX.OBJ|D:\WORK\DOME\NATIVEPLUGINCODE\DOMEPLUGIN\DEBUG\TYPECONVERSIONS.OBJ
C:\PROGRAM FILES (X86)\MICROSOFT VISUAL STUDIO 10.0\VC\BIN\LINK.EXE
C:\PROGRAM FILES (X86)\MICROSOFT SDKS\WINDOWS\V7.0A\LIB\KERNEL32.LIB
C:\PROGRAM FILES (X86)\MICROSOFT SDKS\WINDOWS\V7.0A\LIB\USER32.LIB
C:\PROGRAM FILES (X86)\MICROSOFT SDKS\WINDOWS\V7.0A\LIB\GDI32.LIB
C:\PROGRAM FILES (X86)\MICROSOFT SDKS\WINDOWS\V7.0A\LIB\WINSPOOL.LIB
C:\PROGRAM FILES (X86)\MICROSOFT SDKS\WINDOWS\V7.0A\LIB\COMDLG32.LIB
C:\PROGRAM FILES (X86)\MICROSOFT SDKS\WINDOWS\V7.0A\LIB\ADVAPI32.LIB
C:\PROGRAM FILES (X86)\MICROSOFT SDKS\WINDOWS\V7.0A\LIB\SHELL32.LIB
C:\PROGRAM FILES (X86)\MICROSOFT SDKS\WINDOWS\V7.0A\LIB\OLE32.LIB
C:\PROGRAM FILES (X86)\MICROSOFT SDKS\WINDOWS\V7.0A\LIB\OLEAUT32.LIB
C:\PROGRAM FILES (X86)\MICROSOFT SDKS\WINDOWS\V7.0A\LIB\UUID.LIB
C:\PROGRAM FILES (X86)\MICROSOFT SDKS\WINDOWS\V7.0A\LIB\ODBC32.LIB
C:\PROGRAM FILES (X86)\MICROSOFT SDKS\WINDOWS\V7.0A\LIB\ODBCCP32.LIB
D:\WORK\DOME\NATIVEPLUGINCODE\DOMEPLUGIN\DEBUG\DOMEPLUGIN.DLL.EMBED.MANIFEST.RES
D:\WORK\DOME\NATIVEPLUGINCODE\DOMEPLUGIN\DEBUG\DOMEEXCEPTION.OBJ
D:\WORK\DOME\NATIVEPLUGINCODE\DOMEPLUGIN\DEBUG\TYPECONVERSIONS.OBJ
D:\WORK\DOME\NATIVEPLUGINCODE\DOMEPLUGIN\DEBUG\DLLMAIN.OBJ
D:\WORK\DOME\NATIVEPLUGINCODE\DOMEPLUGIN\DEBUG\STDAFX.OBJ
D:\WORK\DOME\NATIVEPLUGINCODE\DOMEPLUGIN\DEBUG\DOMEPLUGIN.DLL
D:\WORK\DOME\NATIVEPLUGINCODE\DOMEPLUGIN\DEBUG\DOMEPLUGIN.PDB
C:\PROGRAM FILES (X86)\MICROSOFT VISUAL STUDIO 10.0\VC\LIB\MSVCPRTD.LIB
C:\PROGRAM FILES (X86)\MICROSOFT VISUAL STUDIO 10.0\VC\LIB\MSVCRTD.LIB
C:\PROGRAM FILES (X86)\MICROSOFT VISUAL STUDIO 10.0\VC\LIB\OLDNAMES.LIB
C:\PROGRAM FILES (X86)\MICROSOFT VISUAL STUDIO 10.0\VC\BIN\CVTRES.EXE
D:\WORK\DOME\NATIVEPLUGINCODE\SOLIDWORKSPLUGIN\DEBUG\DOMEPLUGIN.DLL
C:\WINDOWS\SYSTEM32\RSAENH.DLL
C:\WINDOWS\SYSTEM32\CRYPT32.DLL
