^D:\WORK\DOME\NATIVEPLUGINCODE\DOMEPLUGIN\DEBUG\DLLMAIN.OBJ|D:\WORK\DOME\NATIVEPLUGINCODE\DOMEPLUGIN\DEBUG\DOMEEXCEPTION.OBJ|D:\WORK\DOME\NATIVEPLUGINCODE\DOMEPLUGIN\DEBUG\DOMEPLUGIN.DLL.EMBED.MANIFEST.RES|D:\WORK\DOME\NATIVEPLUGINCODE\DOMEPLUGIN\DEBUG\STDAFX.OBJ|D:\WORK\DOME\NATIVEPLUGINCODE\DOMEPLUGIN\DEBUG\TYPECONVERSIONS.OBJ
D:\WORK\DOME\NATIVEPLUGINCODE\DOMEPLUGIN\DEBUG\DOMEPLUGIN.ILK
D:\WORK\DOME\NATIVEPLUGINCODE\DOMEPLUGIN\DEBUG\DOMEPLUGIN.DLL
D:\WORK\DOME\NATIVEPLUGINCODE\DOMEPLUGIN\DEBUG\DOMEPLUGIN.DLL.INTERMEDIATE.MANIFEST
D:\WORK\DOME\NATIVEPLUGINCODE\DOMEPLUGIN\DEBUG\DOMEPLUGIN.PDB
D:\WORK\DOME\NATIVEPLUGINCODE\SOLIDWORKSPLUGIN\DEBUG\DOMEPLUGIN.ILK
D:\WORK\DOME\NATIVEPLUGINCODE\SOLIDWORKSPLUGIN\DEBUG\DOMEPLUGIN.DLL
D:\WORK\DOME\NATIVEPLUGINCODE\SOLIDWORKSPLUGIN\DEBUG\DOMEPLUGIN.PDB
