^C:\$ECLIPSE32BIT\ECLIPSEWORKSPACE32BIT\DOME\DOMENATIVEPLUGINCODE\MATLABPLUGINNEW\JNIHELPER.CPP
/c /I. /I../ /I../DomePlugin /I../DomePluginNew /Zi /nologo /W3 /WX- /O2 /Ob1 /Oy- /D _MATLAB_R14 /D WIN32 /D NDEBUG /D _WINDOWS /D _USRDLL /D R13_EXPORTS /D _WINDLL /D _VC80_UPGRADE=0x0600 /D _WINDLL /D _MBCS /D _AFXDLL /GF /Gm- /EHsc /MD /GS /Gy /fp:precise /Zc:wchar_t /Zc:forScope /GR /Fo".\R14_Release\\" /Fd".\R14_Release\vc100.pdb" /FR".\R14_Release\\" /Gd /TP /analyze- /errorReport:prompt C:\$ECLIPSE32BIT\ECLIPSEWORKSPACE32BIT\DOME\DOMENATIVEPLUGINCODE\MATLABPLUGINNEW\JNIHELPER.CPP
^C:\$ECLIPSE32BIT\ECLIPSEWORKSPACE32BIT\DOME\DOMENATIVEPLUGINCODE\MATLABPLUGINNEW\MATLABDATA.CPP
/c /I. /I../ /I../DomePlugin /I../DomePluginNew /Zi /nologo /W3 /WX- /O2 /Ob1 /Oy- /D _MATLAB_R14 /D WIN32 /D NDEBUG /D _WINDOWS /D _USRDLL /D R13_EXPORTS /D _WINDLL /D _VC80_UPGRADE=0x0600 /D _WINDLL /D _MBCS /D _AFXDLL /GF /Gm- /EHsc /MD /GS /Gy /fp:precise /Zc:wchar_t /Zc:forScope /GR /Fo".\R14_Release\\" /Fd".\R14_Release\vc100.pdb" /FR".\R14_Release\\" /Gd /TP /analyze- /errorReport:prompt C:\$ECLIPSE32BIT\ECLIPSEWORKSPACE32BIT\DOME\DOMENATIVEPLUGINCODE\MATLABPLUGINNEW\MATLABDATA.CPP
^C:\$ECLIPSE32BIT\ECLIPSEWORKSPACE32BIT\DOME\DOMENATIVEPLUGINCODE\MATLABPLUGINNEW\MATLABDELEGATE.CPP
/c /I. /I../ /I../DomePlugin /I../DomePluginNew /Zi /nologo /W3 /WX- /O2 /Ob1 /Oy- /D _MATLAB_R14 /D WIN32 /D NDEBUG /D _WINDOWS /D _USRDLL /D R13_EXPORTS /D _WINDLL /D _VC80_UPGRADE=0x0600 /D _WINDLL /D _MBCS /D _AFXDLL /GF /Gm- /EHsc /MD /GS /Gy /fp:precise /Zc:wchar_t /Zc:forScope /GR /Fo".\R14_Release\\" /Fd".\R14_Release\vc100.pdb" /FR".\R14_Release\\" /Gd /TP /analyze- /errorReport:prompt C:\$ECLIPSE32BIT\ECLIPSEWORKSPACE32BIT\DOME\DOMENATIVEPLUGINCODE\MATLABPLUGINNEW\MATLABDELEGATE.CPP
^C:\$ECLIPSE32BIT\ECLIPSEWORKSPACE32BIT\DOME\DOMENATIVEPLUGINCODE\MATLABPLUGINNEW\MATLABMODEL.CPP
/c /I. /I../ /I../DomePlugin /I../DomePluginNew /Zi /nologo /W3 /WX- /O2 /Ob1 /Oy- /D _MATLAB_R14 /D WIN32 /D NDEBUG /D _WINDOWS /D _USRDLL /D R13_EXPORTS /D _WINDLL /D _VC80_UPGRADE=0x0600 /D _WINDLL /D _MBCS /D _AFXDLL /GF /Gm- /EHsc /MD /GS /Gy /fp:precise /Zc:wchar_t /Zc:forScope /GR /Fo".\R14_Release\\" /Fd".\R14_Release\vc100.pdb" /FR".\R14_Release\\" /Gd /TP /analyze- /errorReport:prompt C:\$ECLIPSE32BIT\ECLIPSEWORKSPACE32BIT\DOME\DOMENATIVEPLUGINCODE\MATLABPLUGINNEW\MATLABMODEL.CPP
^C:\$ECLIPSE32BIT\ECLIPSEWORKSPACE32BIT\DOME\DOMENATIVEPLUGINCODE\MATLABPLUGINNEW\MATLABPLUGINCALLER.CPP
/c /I. /I../ /I../DomePlugin /I../DomePluginNew /Zi /nologo /W3 /WX- /O2 /Ob1 /Oy- /D _MATLAB_R14 /D WIN32 /D NDEBUG /D _WINDOWS /D _USRDLL /D R13_EXPORTS /D _WINDLL /D _VC80_UPGRADE=0x0600 /D _WINDLL /D _MBCS /D _AFXDLL /GF /Gm- /EHsc /MD /GS /Gy /fp:precise /Zc:wchar_t /Zc:forScope /GR /Fo".\R14_Release\\" /Fd".\R14_Release\vc100.pdb" /FR".\R14_Release\\" /Gd /TP /analyze- /errorReport:prompt C:\$ECLIPSE32BIT\ECLIPSEWORKSPACE32BIT\DOME\DOMENATIVEPLUGINCODE\MATLABPLUGINNEW\MATLABPLUGINCALLER.CPP
