^C:\$eclipse32bit\EclipseWorkSpace32bit\DOME\DomeNativePluginCode\MatlabPluginNew\MatlabPlugin.vcxproj
C:\$eclipse32bit\EclipseWorkSpace32bit\DOME\DomeNativePluginCode\MatlabPluginNew\R14_Release\MatlabPluginR14.lib
C:\$eclipse32bit\EclipseWorkSpace32bit\DOME\DomeNativePluginCode\MatlabPluginNew\R14_Release\MatlabPluginR14.exp
