^C:\ADIGITALMFG\DIGITALMFGCOMMONS-DOME\DOMENATIVEPLUGINCODE\EXCELPLUGINNEW\2KXP_EXCELFILES\EXCEL9.CPP
/c /I. /I../ /I../DomePluginNew /I./2KXP_ExcelFiles /I"C:\Program Files\Java\jdk1.6.0_45\include" /Zi /nologo /W3 /WX- /O2 /Ob1 /Oy- /D _EXCEL_2KXP /D WIN32 /D NDEBUG /D _WINDOWS /D _USRDLL /D EXCELPLUGIN_EXPORTS /D _WINDLL /D _VC80_UPGRADE=0x0600 /D _WINDLL /D _MBCS /D _AFXDLL /GF /Gm- /EHsc /MD /GS /Gy /fp:precise /Zc:wchar_t /Zc:forScope /Fo".\2KXP_Release\\" /Fd".\2KXP_Release\vc100.pdb" /FR".\2KXP_Release\\" /Gd /TP /analyze- /errorReport:prompt C:\ADIGITALMFG\DIGITALMFGCOMMONS-DOME\DOMENATIVEPLUGINCODE\EXCELPLUGINNEW\2KXP_EXCELFILES\EXCEL9.CPP
^C:\ADIGITALMFG\DIGITALMFGCOMMONS-DOME\DOMENATIVEPLUGINCODE\EXCELPLUGINNEW\EXCELDATA.CPP
/c /I. /I../ /I../DomePluginNew /I./2KXP_ExcelFiles /I"C:\Program Files\Java\jdk1.6.0_45\include" /Zi /nologo /W3 /WX- /O2 /Ob1 /Oy- /D _EXCEL_2KXP /D WIN32 /D NDEBUG /D _WINDOWS /D _USRDLL /D EXCELPLUGIN_EXPORTS /D _WINDLL /D _VC80_UPGRADE=0x0600 /D _WINDLL /D _MBCS /D _AFXDLL /GF /Gm- /EHsc /MD /GS /Gy /fp:precise /Zc:wchar_t /Zc:forScope /Fo".\2KXP_Release\\" /Fd".\2KXP_Release\vc100.pdb" /FR".\2KXP_Release\\" /Gd /TP /analyze- /errorReport:prompt C:\ADIGITALMFG\DIGITALMFGCOMMONS-DOME\DOMENATIVEPLUGINCODE\EXCELPLUGINNEW\EXCELDATA.CPP
^C:\ADIGITALMFG\DIGITALMFGCOMMONS-DOME\DOMENATIVEPLUGINCODE\EXCELPLUGINNEW\EXCELDELEGATE.CPP
/c /I. /I../ /I../DomePluginNew /I./2KXP_ExcelFiles /I"C:\Program Files\Java\jdk1.6.0_45\include" /Zi /nologo /W3 /WX- /O2 /Ob1 /Oy- /D _EXCEL_2KXP /D WIN32 /D NDEBUG /D _WINDOWS /D _USRDLL /D EXCELPLUGIN_EXPORTS /D _WINDLL /D _VC80_UPGRADE=0x0600 /D _WINDLL /D _MBCS /D _AFXDLL /GF /Gm- /EHsc /MD /GS /Gy /fp:precise /Zc:wchar_t /Zc:forScope /Fo".\2KXP_Release\\" /Fd".\2KXP_Release\vc100.pdb" /FR".\2KXP_Release\\" /Gd /TP /analyze- /errorReport:prompt C:\ADIGITALMFG\DIGITALMFGCOMMONS-DOME\DOMENATIVEPLUGINCODE\EXCELPLUGINNEW\EXCELDELEGATE.CPP
^C:\ADIGITALMFG\DIGITALMFGCOMMONS-DOME\DOMENATIVEPLUGINCODE\EXCELPLUGINNEW\EXCELMODEL.CPP
/c /I. /I../ /I../DomePluginNew /I./2KXP_ExcelFiles /I"C:\Program Files\Java\jdk1.6.0_45\include" /Zi /nologo /W3 /WX- /O2 /Ob1 /Oy- /D _EXCEL_2KXP /D WIN32 /D NDEBUG /D _WINDOWS /D _USRDLL /D EXCELPLUGIN_EXPORTS /D _WINDLL /D _VC80_UPGRADE=0x0600 /D _WINDLL /D _MBCS /D _AFXDLL /GF /Gm- /EHsc /MD /GS /Gy /fp:precise /Zc:wchar_t /Zc:forScope /Fo".\2KXP_Release\\" /Fd".\2KXP_Release\vc100.pdb" /FR".\2KXP_Release\\" /Gd /TP /analyze- /errorReport:prompt C:\ADIGITALMFG\DIGITALMFGCOMMONS-DOME\DOMENATIVEPLUGINCODE\EXCELPLUGINNEW\EXCELMODEL.CPP
^C:\ADIGITALMFG\DIGITALMFGCOMMONS-DOME\DOMENATIVEPLUGINCODE\EXCELPLUGINNEW\EXCELPLUGINCALLER.CPP
/c /I. /I../ /I../DomePluginNew /I./2KXP_ExcelFiles /I"C:\Program Files\Java\jdk1.6.0_45\include" /Zi /nologo /W3 /WX- /O2 /Ob1 /Oy- /D _EXCEL_2KXP /D WIN32 /D NDEBUG /D _WINDOWS /D _USRDLL /D EXCELPLUGIN_EXPORTS /D _WINDLL /D _VC80_UPGRADE=0x0600 /D _WINDLL /D _MBCS /D _AFXDLL /GF /Gm- /EHsc /MD /GS /Gy /fp:precise /Zc:wchar_t /Zc:forScope /Fo".\2KXP_Release\\" /Fd".\2KXP_Release\vc100.pdb" /FR".\2KXP_Release\\" /Gd /TP /analyze- /errorReport:prompt C:\ADIGITALMFG\DIGITALMFGCOMMONS-DOME\DOMENATIVEPLUGINCODE\EXCELPLUGINNEW\EXCELPLUGINCALLER.CPP
^C:\ADIGITALMFG\DIGITALMFGCOMMONS-DOME\DOMENATIVEPLUGINCODE\EXCELPLUGINNEW\JNIHELPER.CPP
/c /I. /I../ /I../DomePluginNew /I./2KXP_ExcelFiles /I"C:\Program Files\Java\jdk1.6.0_45\include" /Zi /nologo /W3 /WX- /O2 /Ob1 /Oy- /D _EXCEL_2KXP /D WIN32 /D NDEBUG /D _WINDOWS /D _USRDLL /D EXCELPLUGIN_EXPORTS /D _WINDLL /D _VC80_UPGRADE=0x0600 /D _WINDLL /D _MBCS /D _AFXDLL /GF /Gm- /EHsc /MD /GS /Gy /fp:precise /Zc:wchar_t /Zc:forScope /Fo".\2KXP_Release\\" /Fd".\2KXP_Release\vc100.pdb" /FR".\2KXP_Release\\" /Gd /TP /analyze- /errorReport:prompt C:\ADIGITALMFG\DIGITALMFGCOMMONS-DOME\DOMENATIVEPLUGINCODE\EXCELPLUGINNEW\JNIHELPER.CPP
^C:\ADIGITALMFG\DIGITALMFGCOMMONS-DOME\DOMENATIVEPLUGINCODE\EXCELPLUGINNEW\STDAFX.CPP
/c /I. /I../ /I../DomePluginNew /I./2KXP_ExcelFiles /I"C:\Program Files\Java\jdk1.6.0_45\include" /Zi /nologo /W3 /WX- /O2 /Ob1 /Oy- /D _EXCEL_2KXP /D WIN32 /D NDEBUG /D _WINDOWS /D _USRDLL /D EXCELPLUGIN_EXPORTS /D _WINDLL /D _VC80_UPGRADE=0x0600 /D _WINDLL /D _MBCS /D _AFXDLL /GF /Gm- /EHsc /MD /GS /Gy /fp:precise /Zc:wchar_t /Zc:forScope /Fo".\2KXP_Release\\" /Fd".\2KXP_Release\vc100.pdb" /FR".\2KXP_Release\\" /Gd /TP /analyze- /errorReport:prompt C:\ADIGITALMFG\DIGITALMFGCOMMONS-DOME\DOMENATIVEPLUGINCODE\EXCELPLUGINNEW\STDAFX.CPP
