^C:\ADIGITALMFG\DIGITALMFGCOMMONS-DOME\DOMENATIVEPLUGINCODE\EXCELPLUGINNEW\2KXP_RELEASE\EXCEL9.OBJ|C:\ADIGITALMFG\DIGITALMFGCOMMONS-DOME\DOMENATIVEPLUGINCODE\EXCELPLUGINNEW\2KXP_RELEASE\EXCELDATA.OBJ|C:\ADIGITALMFG\DIGITALMFGCOMMONS-DOME\DOMENATIVEPLUGINCODE\EXCELPLUGINNEW\2KXP_RELEASE\EXCELDELEGATE.OBJ|C:\ADIGITALMFG\DIGITALMFGCOMMONS-DOME\DOMENATIVEPLUGINCODE\EXCELPLUGINNEW\2KXP_RELEASE\EXCELMODEL.OBJ|C:\ADIGITALMFG\DIGITALMFGCOMMONS-DOME\DOMENATIVEPLUGINCODE\EXCELPLUGINNEW\2KXP_RELEASE\EXCELPLUGINCALLER.OBJ|C:\ADIGITALMFG\DIGITALMFGCOMMONS-DOME\DOMENATIVEPLUGINCODE\EXCELPLUGINNEW\2KXP_RELEASE\JNIHELPER.OBJ|C:\ADIGITALMFG\DIGITALMFGCOMMONS-DOME\DOMENATIVEPLUGINCODE\EXCELPLUGINNEW\2KXP_RELEASE\STDAFX.OBJ
C:\ADIGITALMFG\DIGITALMFGCOMMONS-DOME\DOMENATIVEPLUGINCODE\EXCELPLUGINNEW\DOMEPLUGIN.LIB
C:\ADIGITALMFG\DIGITALMFGCOMMONS-DOME\DOMENATIVEPLUGINCODE\EXCELPLUGINNEW\2KXP_RELEASE\EXCEL9.OBJ
C:\ADIGITALMFG\DIGITALMFGCOMMONS-DOME\DOMENATIVEPLUGINCODE\EXCELPLUGINNEW\2KXP_RELEASE\EXCELDATA.OBJ
C:\ADIGITALMFG\DIGITALMFGCOMMONS-DOME\DOMENATIVEPLUGINCODE\EXCELPLUGINNEW\2KXP_RELEASE\EXCELDELEGATE.OBJ
C:\ADIGITALMFG\DIGITALMFGCOMMONS-DOME\DOMENATIVEPLUGINCODE\EXCELPLUGINNEW\2KXP_RELEASE\EXCELMODEL.OBJ
C:\ADIGITALMFG\DIGITALMFGCOMMONS-DOME\DOMENATIVEPLUGINCODE\EXCELPLUGINNEW\2KXP_RELEASE\EXCELPLUGINCALLER.OBJ
C:\ADIGITALMFG\DIGITALMFGCOMMONS-DOME\DOMENATIVEPLUGINCODE\EXCELPLUGINNEW\2KXP_RELEASE\JNIHELPER.OBJ
C:\ADIGITALMFG\DIGITALMFGCOMMONS-DOME\DOMENATIVEPLUGINCODE\EXCELPLUGINNEW\2KXP_RELEASE\STDAFX.OBJ
C:\PROGRAM FILES (X86)\MICROSOFT VISUAL STUDIO 10.0\VC\BIN\1033\LINKUI.DLL
C:\WINDOWS\GLOBALIZATION\SORTING\SORTDEFAULT.NLS
C:\PROGRAM FILES (X86)\MICROSOFT VISUAL STUDIO 10.0\VC\BIN\C2.DLL
C:\PROGRAM FILES (X86)\MICROSOFT VISUAL STUDIO 10.0\VC\BIN\LINK.EXE
C:\PROGRAM FILES (X86)\MICROSOFT VISUAL STUDIO 10.0\VC\ATLMFC\LIB\MFC100.LIB
C:\PROGRAM FILES (X86)\MICROSOFT VISUAL STUDIO 10.0\VC\ATLMFC\LIB\MFCS100.LIB
C:\PROGRAM FILES (X86)\MICROSOFT VISUAL STUDIO 10.0\VC\LIB\MSVCRT.LIB
C:\PROGRAM FILES (X86)\MICROSOFT SDKS\WINDOWS\V7.0A\LIB\KERNEL32.LIB
C:\PROGRAM FILES (X86)\MICROSOFT SDKS\WINDOWS\V7.0A\LIB\USER32.LIB
C:\PROGRAM FILES (X86)\MICROSOFT SDKS\WINDOWS\V7.0A\LIB\GDI32.LIB
C:\PROGRAM FILES (X86)\MICROSOFT SDKS\WINDOWS\V7.0A\LIB\MSIMG32.LIB
C:\PROGRAM FILES (X86)\MICROSOFT SDKS\WINDOWS\V7.0A\LIB\COMDLG32.LIB
C:\PROGRAM FILES (X86)\MICROSOFT SDKS\WINDOWS\V7.0A\LIB\WINSPOOL.LIB
C:\PROGRAM FILES (X86)\MICROSOFT SDKS\WINDOWS\V7.0A\LIB\ADVAPI32.LIB
C:\PROGRAM FILES (X86)\MICROSOFT SDKS\WINDOWS\V7.0A\LIB\SHELL32.LIB
C:\PROGRAM FILES (X86)\MICROSOFT SDKS\WINDOWS\V7.0A\LIB\COMCTL32.LIB
C:\PROGRAM FILES (X86)\MICROSOFT SDKS\WINDOWS\V7.0A\LIB\SHLWAPI.LIB
C:\PROGRAM FILES (X86)\MICROSOFT SDKS\WINDOWS\V7.0A\LIB\UUID.LIB
C:\PROGRAM FILES (X86)\MICROSOFT VISUAL STUDIO 10.0\VC\ATLMFC\LIB\ATLS.LIB
C:\PROGRAM FILES (X86)\MICROSOFT SDKS\WINDOWS\V7.0A\LIB\OLE32.LIB
C:\PROGRAM FILES (X86)\MICROSOFT SDKS\WINDOWS\V7.0A\LIB\OLEAUT32.LIB
C:\PROGRAM FILES (X86)\MICROSOFT SDKS\WINDOWS\V7.0A\LIB\OLEDLG.LIB
C:\PROGRAM FILES (X86)\MICROSOFT SDKS\WINDOWS\V7.0A\LIB\URLMON.LIB
C:\PROGRAM FILES (X86)\MICROSOFT VISUAL STUDIO 10.0\VC\LIB\OLDNAMES.LIB
C:\PROGRAM FILES (X86)\MICROSOFT VISUAL STUDIO 10.0\VC\LIB\MSVCPRT.LIB
C:\PROGRAM FILES (X86)\MICROSOFT SDKS\WINDOWS\V7.0A\LIB\WININET.LIB
C:\PROGRAM FILES (X86)\MICROSOFT SDKS\WINDOWS\V7.0A\LIB\WS2_32.LIB
C:\PROGRAM FILES (X86)\MICROSOFT SDKS\WINDOWS\V7.0A\LIB\MSWSOCK.LIB
C:\WINDOWS\SYSTEM32\TZRES.DLL
C:\ADIGITALMFG\DIGITALMFGCOMMONS-DOME\DOMENATIVEPLUGINCODE\EXCELPLUGINNEW\2KXP_RELEASE\EXCELPLUGIN2KXP.EXP
