^C:\$eclipse32bit\EclipseWorkSpace32bit\DOME\DomeNativePluginCode\MatlabPluginNew\MatlabPlugin.vcxproj
C:\$eclipse32bit\EclipseWorkSpace32bit\DOME\DomeNativePluginCode\MatlabPluginNew\R13_Release\MatlabPluginR13.lib
C:\$eclipse32bit\EclipseWorkSpace32bit\DOME\DomeNativePluginCode\MatlabPluginNew\R13_Release\MatlabPluginR13.exp
